{
  "en": {
    "licenses/mit.md": {
      "name": "MIT License",
      "description": "License to use in code projects"
    }
  },
  "fr": {
    "lettres/demission.md": {
      "name": "Lettre de démission",
      "description": "Une simple lettre de démission",
      "mdFlavor": "commonmark"
    }
  },
  "none": {
    "test.md": {
      "name": "Test template",
      "description": "Template to check the parser"
    }
  }
}
